{
	"ganeebianCorvette": {
		"class": "entity",
		"key": "ganeebianCorvette",
		"faction": "ganeebian",
		"name": "Ganeebian Corvette",
		"icon_scale": 1,
		"sprite_scale": 1,
		"emitters": [

		],
		"layout_width": 9,
		"layout": [
			[0], [4,{"barrel": 0}]
		],
		"barrels": [
			{
				"offsetX": 0,
				"offsetY": 0,
				"rotation": 0,
				"spread": 0
			}
		],
		"shapes": [
			[8, 0, 0, 0, 0, 0]
		],
		"spawn_odd": 10
	}
}
